<?xml version="1.0" encoding="UTF-8" standalone="no"?>
<graphml xmlns="http://graphml.graphdrawing.org/xmlns" xmlns:xsi="http://www.w3.org/2001/XMLSchema-instance" xmlns:y="http://www.yworks.com/xml/graphml" xmlns:yed="http://www.yworks.com/xml/yed/3" xsi:schemaLocation="http://graphml.graphdrawing.org/xmlns http://www.yworks.com/xml/schema/graphml/1.1/ygraphml.xsd">
  <!--Created by yEd 3.14-->
  <key attr.name="Description" attr.type="string" for="graph" id="d0"/>
  <key for="port" id="d1" yfiles.type="portgraphics"/>
  <key for="port" id="d2" yfiles.type="portgeometry"/>
  <key for="port" id="d3" yfiles.type="portuserdata"/>
  <key attr.name="url" attr.type="string" for="node" id="d4"/>
  <key attr.name="description" attr.type="string" for="node" id="d5"/>
  <key for="node" id="d6" yfiles.type="nodegraphics"/>
  <key for="graphml" id="d7" yfiles.type="resources"/>
  <key attr.name="url" attr.type="string" for="edge" id="d8"/>
  <key attr.name="description" attr.type="string" for="edge" id="d9"/>
  <key for="edge" id="d10" yfiles.type="edgegraphics"/>
  <graph edgedefault="directed" id="G">
    <data key="d0"/>
    <node id="n0">
      <data key="d6">
        <y:GenericNode configuration="com.yworks.bpmn.Artifact.withShadow">
          <y:Geometry height="61.0141709731987" width="193.30285600864863" x="1414.7042824805571" y="600.9936841447284"/>
          <y:Fill color="#FFFFFFE6" transparent="false"/>
          <y:BorderStyle color="#000000" type="line" width="1.0"/>
          <y:NodeLabel alignment="left" autoSizePolicy="content" fontFamily="Dialog" fontSize="12" fontStyle="plain" hasBackgroundColor="false" hasLineColor="false" height="48.103515625" modelName="internal" modelPosition="bl" textColor="#000000" visible="true" width="184.099609375" x="4.0" y="8.910655348198702">When aweapon is equiped 
we add its game object as a child 
of WeaponHolder </y:NodeLabel>
          <y:StyleProperties>
            <y:Property class="java.awt.Color" name="com.yworks.bpmn.icon.line.color" value="#000000"/>
            <y:Property class="java.awt.Color" name="com.yworks.bpmn.icon.fill2" value="#d4d4d4cc"/>
            <y:Property class="java.awt.Color" name="com.yworks.bpmn.icon.fill" value="#ffffffe6"/>
            <y:Property class="com.yworks.yfiles.bpmn.view.BPMNTypeEnum" name="com.yworks.bpmn.type" value="ARTIFACT_TYPE_ANNOTATION"/>
          </y:StyleProperties>
        </y:GenericNode>
      </data>
    </node>
    <node id="n1">
      <data key="d6">
        <y:GenericNode configuration="BevelNode3">
          <y:Geometry height="30.0" width="98.43266066970523" x="843.2601847938217" y="574.3441164197673"/>
          <y:Fill color="#F2DB85" transparent="false"/>
          <y:BorderStyle hasColor="false" type="line" width="1.0"/>
          <y:NodeLabel alignment="center" autoSizePolicy="content" fontFamily="Dialog" fontSize="12" fontStyle="plain" hasBackgroundColor="false" hasLineColor="false" height="18.701171875" modelName="custom" textColor="#000000" visible="true" width="38.013671875" x="30.209494397352614" y="5.6494140625">Player<y:LabelModel>
              <y:SmartNodeLabelModel distance="4.0"/>
            </y:LabelModel>
            <y:ModelParameter>
              <y:SmartNodeLabelModelParameter labelRatioX="0.0" labelRatioY="0.0" nodeRatioX="0.0" nodeRatioY="0.0" offsetX="0.0" offsetY="0.0" upX="0.0" upY="-1.0"/>
            </y:ModelParameter>
          </y:NodeLabel>
        </y:GenericNode>
      </data>
    </node>
    <node id="n2">
      <data key="d6">
        <y:GenericNode configuration="com.yworks.flowchart.process">
          <y:Geometry height="30.875589299891885" width="181.9528560086486" x="698.3794263307395" y="664.2315209574774"/>
          <y:Fill color="#E8EEF7" color2="#B7C9E3" transparent="false"/>
          <y:BorderStyle color="#000000" type="line" width="1.0"/>
          <y:NodeLabel alignment="center" autoSizePolicy="content" fontFamily="Dialog" fontSize="12" fontStyle="plain" hasBackgroundColor="false" hasLineColor="false" height="18.701171875" modelName="custom" textColor="#000000" visible="true" width="134.0546875" x="23.94908425432436" y="6.0872087124459995">PlayerKbMoveController<y:LabelModel>
              <y:SmartNodeLabelModel distance="4.0"/>
            </y:LabelModel>
            <y:ModelParameter>
              <y:SmartNodeLabelModelParameter labelRatioX="0.0" labelRatioY="0.0" nodeRatioX="0.0" nodeRatioY="0.0" offsetX="0.0" offsetY="0.0" upX="0.0" upY="-1.0"/>
            </y:ModelParameter>
          </y:NodeLabel>
        </y:GenericNode>
      </data>
    </node>
    <node id="n3">
      <data key="d6">
        <y:GenericNode configuration="com.yworks.flowchart.process">
          <y:Geometry height="30.875589299891942" width="181.9528560086486" x="698.3794263307395" y="694.2315209574774"/>
          <y:Fill color="#FFFFFF" color2="#FFFFFF" transparent="false"/>
          <y:BorderStyle color="#000000" type="line" width="1.0"/>
          <y:NodeLabel alignment="left" autoSizePolicy="content" fontFamily="Consolas" fontSize="12" fontStyle="plain" hasBackgroundColor="false" hasLineColor="false" height="28.0" modelName="internal" modelPosition="tl" textColor="#000000" visible="true" width="116.16015625" x="4.0" y="4.0">- IMovable mover 

</y:NodeLabel>
        </y:GenericNode>
      </data>
    </node>
    <node id="n4">
      <data key="d6">
        <y:GenericNode configuration="com.yworks.flowchart.process">
          <y:Geometry height="42.1770790210075" width="181.9528560086486" x="698.3794263307395" y="725.1071102573693"/>
          <y:Fill color="#FFFFFF" color2="#FFFFFF" transparent="false"/>
          <y:BorderStyle color="#000000" type="line" width="1.0"/>
          <y:NodeLabel alignment="left" autoSizePolicy="content" fontFamily="Consolas" fontSize="12" fontStyle="plain" hasBackgroundColor="false" hasLineColor="false" height="28.0" modelName="internal" modelPosition="tl" textColor="#000000" visible="true" width="102.96484375" x="4.0" y="4.0">- void Start()
- void Update()</y:NodeLabel>
        </y:GenericNode>
      </data>
    </node>
    <node id="n5">
      <data key="d6">
        <y:GenericNode configuration="com.yworks.flowchart.process">
          <y:Geometry height="30.875589299891885" width="181.9528560086486" x="928.4447479179607" y="920.6990545032047"/>
          <y:Fill color="#E8EEF7" color2="#B7C9E3" transparent="false"/>
          <y:BorderStyle color="#000000" type="line" width="1.0"/>
          <y:NodeLabel alignment="center" autoSizePolicy="content" fontFamily="Dialog" fontSize="12" fontStyle="plain" hasBackgroundColor="false" hasLineColor="false" height="18.701171875" modelName="custom" textColor="#000000" visible="true" width="77.365234375" x="52.29381081682436" y="6.0872087124459995">PlayerRotator<y:LabelModel>
              <y:SmartNodeLabelModel distance="4.0"/>
            </y:LabelModel>
            <y:ModelParameter>
              <y:SmartNodeLabelModelParameter labelRatioX="0.0" labelRatioY="0.0" nodeRatioX="0.0" nodeRatioY="0.0" offsetX="0.0" offsetY="0.0" upX="0.0" upY="-1.0"/>
            </y:ModelParameter>
          </y:NodeLabel>
        </y:GenericNode>
      </data>
    </node>
    <node id="n6">
      <data key="d6">
        <y:GenericNode configuration="com.yworks.flowchart.process">
          <y:Geometry height="20.39999999999992" width="181.9528560086486" x="928.4447479179607" y="950.6990545032047"/>
          <y:Fill color="#FFFFFF" color2="#FFFFFF" transparent="false"/>
          <y:BorderStyle color="#000000" type="line" width="1.0"/>
          <y:NodeLabel alignment="left" autoSizePolicy="content" fontFamily="Consolas" fontSize="12" fontStyle="plain" hasBackgroundColor="false" hasLineColor="false" hasText="false" height="4.0" modelName="internal" modelPosition="tl" textColor="#000000" visible="true" width="4.0" x="4.0" y="4.0"/>
        </y:GenericNode>
      </data>
    </node>
    <node id="n7">
      <data key="d6">
        <y:GenericNode configuration="com.yworks.flowchart.process">
          <y:Geometry height="17.279999999999916" width="181.9528560086486" x="928.4447479179607" y="971.0990545032047"/>
          <y:Fill color="#FFFFFF" color2="#FFFFFF" transparent="false"/>
          <y:BorderStyle color="#000000" type="line" width="1.0"/>
          <y:NodeLabel alignment="left" autoSizePolicy="content" fontFamily="Consolas" fontSize="12" fontStyle="plain" hasBackgroundColor="false" hasLineColor="false" hasText="false" height="4.0" modelName="internal" modelPosition="tl" textColor="#000000" visible="true" width="4.0" x="4.0" y="4.0"/>
        </y:GenericNode>
      </data>
    </node>
    <node id="n8">
      <data key="d6">
        <y:GenericNode configuration="com.yworks.flowchart.process">
          <y:Geometry height="30.875589299891885" width="181.9528560086486" x="698.3794263307395" y="920.6990545032047"/>
          <y:Fill color="#E8EEF7" color2="#B7C9E3" transparent="false"/>
          <y:BorderStyle color="#000000" type="line" width="1.0"/>
          <y:NodeLabel alignment="center" autoSizePolicy="content" fontFamily="Dialog" fontSize="12" fontStyle="plain" hasBackgroundColor="false" hasLineColor="false" height="18.701171875" modelName="custom" textColor="#000000" visible="true" width="71.353515625" x="55.29967019182436" y="6.0872087124459995">PlayerMover<y:LabelModel>
              <y:SmartNodeLabelModel distance="4.0"/>
            </y:LabelModel>
            <y:ModelParameter>
              <y:SmartNodeLabelModelParameter labelRatioX="0.0" labelRatioY="0.0" nodeRatioX="0.0" nodeRatioY="0.0" offsetX="0.0" offsetY="0.0" upX="0.0" upY="-1.0"/>
            </y:ModelParameter>
          </y:NodeLabel>
        </y:GenericNode>
      </data>
    </node>
    <node id="n9">
      <data key="d6">
        <y:GenericNode configuration="com.yworks.flowchart.process">
          <y:Geometry height="30.000000000000057" width="181.9528560086486" x="698.3794263307395" y="950.6990545032047"/>
          <y:Fill color="#FFFFFF" color2="#FFFFFF" transparent="false"/>
          <y:BorderStyle color="#000000" type="line" width="1.0"/>
          <y:NodeLabel alignment="left" autoSizePolicy="content" fontFamily="Consolas" fontSize="12" fontStyle="plain" hasBackgroundColor="false" hasLineColor="false" height="16.0" modelName="internal" modelPosition="tl" textColor="#000000" visible="true" width="76.57421875" x="4.0" y="4.0">- float vel</y:NodeLabel>
        </y:GenericNode>
      </data>
    </node>
    <node id="n10">
      <data key="d6">
        <y:GenericNode configuration="com.yworks.flowchart.process">
          <y:Geometry height="18.134170973198763" width="181.9528560086486" x="698.3794263307395" y="980.6990545032047"/>
          <y:Fill color="#FFFFFF" color2="#FFFFFF" transparent="false"/>
          <y:BorderStyle color="#000000" type="line" width="1.0"/>
          <y:NodeLabel alignment="left" autoSizePolicy="content" fontFamily="Consolas" fontSize="12" fontStyle="plain" hasBackgroundColor="false" hasLineColor="false" hasText="false" height="4.0" modelName="internal" modelPosition="tl" textColor="#000000" visible="true" width="4.0" x="4.0" y="4.0"/>
        </y:GenericNode>
      </data>
    </node>
    <node id="n11">
      <data key="d6">
        <y:GenericNode configuration="com.yworks.flowchart.process">
          <y:Geometry height="30.875589299891885" width="186.24132158722136" x="696.2351935414532" y="822.0773477075686"/>
          <y:Fill color="#E8EEF7" color2="#B7C9E3" transparent="false"/>
          <y:BorderStyle color="#000000" type="dashed" width="1.0"/>
          <y:NodeLabel alignment="center" autoSizePolicy="content" fontFamily="Dialog" fontSize="12" fontStyle="italic" hasBackgroundColor="false" hasLineColor="false" height="18.701171875" modelName="custom" textColor="#000000" visible="true" width="52.69140625" x="66.77495766861068" y="6.0872087124459995">IMovable<y:LabelModel>
              <y:SmartNodeLabelModel distance="4.0"/>
            </y:LabelModel>
            <y:ModelParameter>
              <y:SmartNodeLabelModelParameter labelRatioX="0.0" labelRatioY="0.0" nodeRatioX="0.0" nodeRatioY="0.0" offsetX="0.0" offsetY="0.0" upX="0.0" upY="-1.0"/>
            </y:ModelParameter>
          </y:NodeLabel>
        </y:GenericNode>
      </data>
    </node>
    <node id="n12">
      <data key="d6">
        <y:GenericNode configuration="com.yworks.flowchart.process">
          <y:Geometry height="26.01023745019927" width="186.24132158722136" x="696.2351935414532" y="852.0773477075686"/>
          <y:Fill color="#FFFFFF" color2="#FFFFFF" transparent="false"/>
          <y:BorderStyle color="#000000" type="dashed" width="1.0"/>
          <y:NodeLabel alignment="left" autoSizePolicy="content" fontFamily="Consolas" fontSize="12" fontStyle="plain" hasBackgroundColor="false" hasLineColor="false" height="16.0" modelName="internal" modelPosition="tl" textColor="#000000" visible="true" width="175.5390625" x="4.0" y="4.0">move(Vector3 displacement)</y:NodeLabel>
        </y:GenericNode>
      </data>
    </node>
    <node id="n13">
      <data key="d6">
        <y:GenericNode configuration="com.yworks.flowchart.process">
          <y:Geometry height="30.875589299891885" width="213.88932158722127" x="912.4765151286745" y="822.0773477075686"/>
          <y:Fill color="#E8EEF7" color2="#B7C9E3" transparent="false"/>
          <y:BorderStyle color="#000000" type="dashed" width="1.0"/>
          <y:NodeLabel alignment="center" autoSizePolicy="content" fontFamily="Dialog" fontSize="12" fontStyle="italic" hasBackgroundColor="false" hasLineColor="false" height="18.701171875" modelName="custom" textColor="#000000" visible="true" width="58.703125" x="77.59309829361064" y="6.0872087124459995">IRotatable<y:LabelModel>
              <y:SmartNodeLabelModel distance="4.0"/>
            </y:LabelModel>
            <y:ModelParameter>
              <y:SmartNodeLabelModelParameter labelRatioX="0.0" labelRatioY="0.0" nodeRatioX="0.0" nodeRatioY="0.0" offsetX="0.0" offsetY="0.0" upX="0.0" upY="-1.0"/>
            </y:ModelParameter>
          </y:NodeLabel>
        </y:GenericNode>
      </data>
    </node>
    <node id="n14">
      <data key="d6">
        <y:GenericNode configuration="com.yworks.flowchart.process">
          <y:Geometry height="26.01023745019927" width="213.88932158722127" x="912.4765151286745" y="852.0773477075686"/>
          <y:Fill color="#FFFFFF" color2="#FFFFFF" transparent="false"/>
          <y:BorderStyle color="#000000" type="dashed" width="1.0"/>
          <y:NodeLabel alignment="left" autoSizePolicy="content" fontFamily="Consolas" fontSize="12" fontStyle="plain" hasBackgroundColor="false" hasLineColor="false" height="16.0" modelName="internal" modelPosition="tl" textColor="#000000" visible="true" width="201.9296875" x="4.0" y="4.0">rotate(Vector3 lookAtPosition)</y:NodeLabel>
        </y:GenericNode>
      </data>
    </node>
    <node id="n15">
      <data key="d6">
        <y:GenericNode configuration="com.yworks.flowchart.process">
          <y:Geometry height="30.875589299891885" width="247.16932158722125" x="1153.0014551442418" y="822.9529370074605"/>
          <y:Fill color="#E8EEF7" color2="#B7C9E3" transparent="false"/>
          <y:BorderStyle color="#000000" type="dashed" width="1.0"/>
          <y:NodeLabel alignment="center" autoSizePolicy="content" fontFamily="Dialog" fontSize="12" fontStyle="italic" hasBackgroundColor="false" hasLineColor="false" height="18.701171875" modelName="custom" textColor="#000000" visible="true" width="104.048828125" x="71.56024673111051" y="6.087208712445886">IWeaponController<y:LabelModel>
              <y:SmartNodeLabelModel distance="4.0"/>
            </y:LabelModel>
            <y:ModelParameter>
              <y:SmartNodeLabelModelParameter labelRatioX="0.0" labelRatioY="0.0" nodeRatioX="0.0" nodeRatioY="0.0" offsetX="0.0" offsetY="0.0" upX="0.0" upY="-1.0"/>
            </y:ModelParameter>
          </y:NodeLabel>
        </y:GenericNode>
      </data>
    </node>
    <node id="n16">
      <data key="d6">
        <y:GenericNode configuration="com.yworks.flowchart.process">
          <y:Geometry height="66.9702374501993" width="247.16932158722125" x="1153.0014551442418" y="852.9529370074605"/>
          <y:Fill color="#FFFFFF" color2="#FFFFFF" transparent="false"/>
          <y:BorderStyle color="#000000" type="dashed" width="1.0"/>
          <y:NodeLabel alignment="left" autoSizePolicy="content" fontFamily="Consolas" fontSize="12" fontStyle="plain" hasBackgroundColor="false" hasLineColor="false" height="40.0" modelName="internal" modelPosition="tl" textColor="#000000" visible="true" width="234.91796875" x="4.0" y="4.0">void equipWeapon(WeaponType weapon)
void fireWeapon()
void pickAmmo(AmmoType ammo)</y:NodeLabel>
        </y:GenericNode>
      </data>
    </node>
    <node id="n17">
      <data key="d6">
        <y:GenericNode configuration="com.yworks.flowchart.process">
          <y:Geometry height="30.875589299891885" width="181.9528560086486" x="1185.6096879335278" y="965.1768491531508"/>
          <y:Fill color="#E8EEF7" color2="#B7C9E3" transparent="false"/>
          <y:BorderStyle color="#000000" type="line" width="1.0"/>
          <y:NodeLabel alignment="center" autoSizePolicy="content" fontFamily="Dialog" fontSize="12" fontStyle="plain" hasBackgroundColor="false" hasLineColor="false" height="18.701171875" modelName="custom" textColor="#000000" visible="true" width="100.71484375" x="40.61900612932436" y="6.087208712445886">WeaponController<y:LabelModel>
              <y:SmartNodeLabelModel distance="4.0"/>
            </y:LabelModel>
            <y:ModelParameter>
              <y:SmartNodeLabelModelParameter labelRatioX="0.0" labelRatioY="0.0" nodeRatioX="0.0" nodeRatioY="0.0" offsetX="0.0" offsetY="0.0" upX="0.0" upY="-1.0"/>
            </y:ModelParameter>
          </y:NodeLabel>
        </y:GenericNode>
      </data>
    </node>
    <node id="n18">
      <data key="d6">
        <y:GenericNode configuration="com.yworks.flowchart.process">
          <y:Geometry height="41.2799999999998" width="181.9528560086486" x="1185.6096879335278" y="995.1768491531508"/>
          <y:Fill color="#FFFFFF" color2="#FFFFFF" transparent="false"/>
          <y:BorderStyle color="#000000" type="line" width="1.0"/>
          <y:NodeLabel alignment="left" autoSizePolicy="content" fontFamily="Consolas" fontSize="12" fontStyle="plain" hasBackgroundColor="false" hasLineColor="false" height="16.0" modelName="internal" modelPosition="tl" textColor="#000000" visible="true" width="155.74609375" x="4.0" y="4.0">- IWeapon currentWeapon</y:NodeLabel>
        </y:GenericNode>
      </data>
    </node>
    <node id="n19">
      <data key="d6">
        <y:GenericNode configuration="com.yworks.flowchart.process">
          <y:Geometry height="20.39999999999992" width="181.9528560086486" x="1185.6096879335278" y="1036.4568491531506"/>
          <y:Fill color="#FFFFFF" color2="#FFFFFF" transparent="false"/>
          <y:BorderStyle color="#000000" type="line" width="1.0"/>
          <y:NodeLabel alignment="left" autoSizePolicy="content" fontFamily="Consolas" fontSize="12" fontStyle="plain" hasBackgroundColor="false" hasLineColor="false" hasText="false" height="4.0" modelName="internal" modelPosition="tl" textColor="#000000" visible="true" width="4.0" x="4.0" y="4.0"/>
        </y:GenericNode>
      </data>
    </node>
    <node id="n20">
      <data key="d6">
        <y:GenericNode configuration="com.yworks.flowchart.process">
          <y:Geometry height="30.875589299891885" width="181.9528560086486" x="928.4447479179607" y="664.2315209574774"/>
          <y:Fill color="#E8EEF7" color2="#B7C9E3" transparent="false"/>
          <y:BorderStyle color="#000000" type="line" width="1.0"/>
          <y:NodeLabel alignment="center" autoSizePolicy="content" fontFamily="Dialog" fontSize="12" fontStyle="plain" hasBackgroundColor="false" hasLineColor="false" height="18.701171875" modelName="custom" textColor="#000000" visible="true" width="149.40625" x="16.27330300432436" y="6.0872087124459995">PlayerKbRotationController<y:LabelModel>
              <y:SmartNodeLabelModel distance="4.0"/>
            </y:LabelModel>
            <y:ModelParameter>
              <y:SmartNodeLabelModelParameter labelRatioX="0.0" labelRatioY="0.0" nodeRatioX="0.0" nodeRatioY="0.0" offsetX="0.0" offsetY="0.0" upX="0.0" upY="-1.0"/>
            </y:ModelParameter>
          </y:NodeLabel>
        </y:GenericNode>
      </data>
    </node>
    <node id="n21">
      <data key="d6">
        <y:GenericNode configuration="com.yworks.flowchart.process">
          <y:Geometry height="30.87558929989183" width="181.9528560086486" x="928.4447479179607" y="694.2315209574774"/>
          <y:Fill color="#FFFFFF" color2="#FFFFFF" transparent="false"/>
          <y:BorderStyle color="#000000" type="line" width="1.0"/>
          <y:NodeLabel alignment="left" autoSizePolicy="content" fontFamily="Consolas" fontSize="12" fontStyle="plain" hasBackgroundColor="false" hasLineColor="false" height="28.0" modelName="internal" modelPosition="tl" textColor="#000000" visible="true" width="142.55078125" x="4.0" y="4.0">- IRotatable rotator 

</y:NodeLabel>
        </y:GenericNode>
      </data>
    </node>
    <node id="n22">
      <data key="d6">
        <y:GenericNode configuration="com.yworks.flowchart.process">
          <y:Geometry height="42.1770790210075" width="181.9528560086486" x="928.4447479179607" y="725.1071102573693"/>
          <y:Fill color="#FFFFFF" color2="#FFFFFF" transparent="false"/>
          <y:BorderStyle color="#000000" type="line" width="1.0"/>
          <y:NodeLabel alignment="left" autoSizePolicy="content" fontFamily="Consolas" fontSize="12" fontStyle="plain" hasBackgroundColor="false" hasLineColor="false" height="28.0" modelName="internal" modelPosition="tl" textColor="#000000" visible="true" width="102.96484375" x="4.0" y="4.0">- void Start()
- void Update()</y:NodeLabel>
        </y:GenericNode>
      </data>
    </node>
    <node id="n23">
      <data key="d6">
        <y:GenericNode configuration="com.yworks.flowchart.process">
          <y:Geometry height="30.875589299891885" width="243.3928560086482" x="1154.8896879335282" y="664.2315209574774"/>
          <y:Fill color="#E8EEF7" color2="#B7C9E3" transparent="false"/>
          <y:BorderStyle color="#000000" type="line" width="1.0"/>
          <y:NodeLabel alignment="center" autoSizePolicy="content" fontFamily="Dialog" fontSize="12" fontStyle="plain" hasBackgroundColor="false" hasLineColor="false" height="18.701171875" modelName="custom" textColor="#000000" visible="true" width="149.40625" x="46.99330300432416" y="6.0872087124459995">PlayerKbWeaponController<y:LabelModel>
              <y:SmartNodeLabelModel distance="4.0"/>
            </y:LabelModel>
            <y:ModelParameter>
              <y:SmartNodeLabelModelParameter labelRatioX="0.0" labelRatioY="0.0" nodeRatioX="0.0" nodeRatioY="0.0" offsetX="0.0" offsetY="0.0" upX="0.0" upY="-1.0"/>
            </y:ModelParameter>
          </y:NodeLabel>
        </y:GenericNode>
      </data>
    </node>
    <node id="n24">
      <data key="d6">
        <y:GenericNode configuration="com.yworks.flowchart.process">
          <y:Geometry height="30.87558929989183" width="243.3928560086482" x="1154.8896879335282" y="694.2315209574775"/>
          <y:Fill color="#FFFFFF" color2="#FFFFFF" transparent="false"/>
          <y:BorderStyle color="#000000" type="line" width="1.0"/>
          <y:NodeLabel alignment="left" autoSizePolicy="content" fontFamily="Consolas" fontSize="12" fontStyle="plain" hasBackgroundColor="false" hasLineColor="false" height="28.0" modelName="internal" modelPosition="tl" textColor="#000000" visible="true" width="182.13671875" x="4.0" y="4.0">- IWeaponController weapon 

</y:NodeLabel>
        </y:GenericNode>
      </data>
    </node>
    <node id="n25">
      <data key="d6">
        <y:GenericNode configuration="com.yworks.flowchart.process">
          <y:Geometry height="52.69417097319871" width="243.3928560086482" x="1154.8896879335282" y="725.1071102573694"/>
          <y:Fill color="#FFFFFF" color2="#FFFFFF" transparent="false"/>
          <y:BorderStyle color="#000000" type="line" width="1.0"/>
          <y:NodeLabel alignment="left" autoSizePolicy="content" fontFamily="Consolas" fontSize="12" fontStyle="plain" hasBackgroundColor="false" hasLineColor="false" height="40.0" modelName="internal" modelPosition="tl" textColor="#000000" visible="true" width="234.91796875" x="4.0" y="4.0">- void Start()
- void Update()
- void OnTriggerEnter(Collider col)</y:NodeLabel>
        </y:GenericNode>
      </data>
    </node>
    <node id="n26">
      <data key="d6">
        <y:GenericNode configuration="com.yworks.flowchart.process">
          <y:Geometry height="37.43871442222121" width="127.55285600864852" x="1460.9090303985176" y="786.3898118851312"/>
          <y:Fill color="#E8EEF7" color2="#B7C9E3" transparent="false"/>
          <y:BorderStyle color="#000000" type="line" width="1.0"/>
          <y:NodeLabel alignment="center" autoSizePolicy="content" fontFamily="Dialog" fontSize="12" fontStyle="plain" hasBackgroundColor="false" hasLineColor="false" height="33.40234375" modelName="custom" textColor="#000000" visible="true" width="98.740234375" x="14.406310816824316" y="2.018185336110605">&lt;&lt;enumeration&gt;&gt;
WeaponType<y:LabelModel>
              <y:SmartNodeLabelModel distance="4.0"/>
            </y:LabelModel>
            <y:ModelParameter>
              <y:SmartNodeLabelModelParameter labelRatioX="0.0" labelRatioY="0.0" nodeRatioX="0.0" nodeRatioY="0.0" offsetX="0.0" offsetY="0.0" upX="0.0" upY="-1.0"/>
            </y:ModelParameter>
          </y:NodeLabel>
        </y:GenericNode>
      </data>
    </node>
    <node id="n27">
      <data key="d6">
        <y:GenericNode configuration="com.yworks.flowchart.process">
          <y:Geometry height="61.01417097319876" width="127.55285600864852" x="1460.9090303985176" y="822.9529370074605"/>
          <y:Fill color="#FFFFFF" color2="#FFFFFF" transparent="false"/>
          <y:BorderStyle color="#000000" type="line" width="1.0"/>
          <y:NodeLabel alignment="left" autoSizePolicy="content" fontFamily="Consolas" fontSize="12" fontStyle="plain" hasBackgroundColor="false" hasLineColor="false" height="52.0" modelName="internal" modelPosition="tl" textColor="#000000" visible="true" width="102.96484375" x="4.0" y="4.0">Gun
ShotGun
MachineGun
GrenadeLauncher</y:NodeLabel>
        </y:GenericNode>
      </data>
    </node>
    <node id="n28">
      <data key="d6">
        <y:GenericNode configuration="com.yworks.flowchart.process">
          <y:Geometry height="37.43871442222121" width="127.55285600864852" x="1460.9090303985179" y="898.4751423575145"/>
          <y:Fill color="#E8EEF7" color2="#B7C9E3" transparent="false"/>
          <y:BorderStyle color="#000000" type="line" width="1.0"/>
          <y:NodeLabel alignment="center" autoSizePolicy="content" fontFamily="Dialog" fontSize="12" fontStyle="plain" hasBackgroundColor="false" hasLineColor="false" height="33.40234375" modelName="custom" textColor="#000000" visible="true" width="98.740234375" x="14.406310816824316" y="2.018185336110605">&lt;&lt;enumeration&gt;&gt;
AmmoType<y:LabelModel>
              <y:SmartNodeLabelModel distance="4.0"/>
            </y:LabelModel>
            <y:ModelParameter>
              <y:SmartNodeLabelModelParameter labelRatioX="0.0" labelRatioY="0.0" nodeRatioX="0.0" nodeRatioY="0.0" offsetX="0.0" offsetY="0.0" upX="0.0" upY="-1.0"/>
            </y:ModelParameter>
          </y:NodeLabel>
        </y:GenericNode>
      </data>
    </node>
    <node id="n29">
      <data key="d6">
        <y:GenericNode configuration="com.yworks.flowchart.process">
          <y:Geometry height="52.69417097319871" width="127.55285600864852" x="1460.9090303985179" y="935.0382674798439"/>
          <y:Fill color="#FFFFFF" color2="#FFFFFF" transparent="false"/>
          <y:BorderStyle color="#000000" type="line" width="1.0"/>
          <y:NodeLabel alignment="left" autoSizePolicy="content" fontFamily="Consolas" fontSize="12" fontStyle="plain" hasBackgroundColor="false" hasLineColor="false" height="40.0" modelName="internal" modelPosition="tl" textColor="#000000" visible="true" width="50.18359375" x="4.0" y="4.0">Bullet
Shell
Grenade</y:NodeLabel>
        </y:GenericNode>
      </data>
    </node>
    <node id="n30">
      <data key="d6">
        <y:GenericNode configuration="BevelNode3">
          <y:Geometry height="30.0" width="98.43266066970523" x="1470.8500241191057" y="579.6882328395345"/>
          <y:Fill color="#F2DB85" transparent="false"/>
          <y:BorderStyle hasColor="false" type="line" width="1.0"/>
          <y:NodeLabel alignment="center" autoSizePolicy="content" fontFamily="Dialog" fontSize="12" fontStyle="plain" hasBackgroundColor="false" hasLineColor="false" height="18.701171875" modelName="custom" textColor="#000000" visible="true" width="84.044921875" x="7.1938693973525005" y="5.6494140625">WeaponHolder<y:LabelModel>
              <y:SmartNodeLabelModel distance="4.0"/>
            </y:LabelModel>
            <y:ModelParameter>
              <y:SmartNodeLabelModelParameter labelRatioX="0.0" labelRatioY="0.0" nodeRatioX="0.0" nodeRatioY="0.0" offsetX="0.0" offsetY="0.0" upX="0.0" upY="-1.0"/>
            </y:ModelParameter>
          </y:NodeLabel>
        </y:GenericNode>
      </data>
    </node>
    <node id="n31">
      <data key="d6">
        <y:GenericNode configuration="com.yworks.flowchart.process">
          <y:Geometry height="30.875589299891885" width="170.139815206178" x="901.5512683191961" y="1112.7546954151373"/>
          <y:Fill color="#E8EEF7" color2="#B7C9E3" transparent="false"/>
          <y:BorderStyle color="#000000" type="dashed" width="1.0"/>
          <y:NodeLabel alignment="center" autoSizePolicy="content" fontFamily="Dialog" fontSize="12" fontStyle="italic" hasBackgroundColor="false" hasLineColor="false" height="18.701171875" modelName="custom" textColor="#000000" visible="true" width="52.029296875" x="59.05525916558895" y="6.0872087124459995">IWeapon<y:LabelModel>
              <y:SmartNodeLabelModel distance="4.0"/>
            </y:LabelModel>
            <y:ModelParameter>
              <y:SmartNodeLabelModelParameter labelRatioX="0.0" labelRatioY="0.0" nodeRatioX="0.0" nodeRatioY="0.0" offsetX="0.0" offsetY="0.0" upX="0.0" upY="-1.0"/>
            </y:ModelParameter>
          </y:NodeLabel>
        </y:GenericNode>
      </data>
    </node>
    <node id="n32">
      <data key="d6">
        <y:GenericNode configuration="com.yworks.flowchart.process">
          <y:Geometry height="52.694170973198766" width="170.139815206178" x="901.5512683191961" y="1142.7546954151373"/>
          <y:Fill color="#FFFFFF" color2="#FFFFFF" transparent="false"/>
          <y:BorderStyle color="#000000" type="dashed" width="1.0"/>
          <y:NodeLabel alignment="left" autoSizePolicy="content" fontFamily="Consolas" fontSize="12" fontStyle="plain" hasBackgroundColor="false" hasLineColor="false" height="40.0" modelName="internal" modelPosition="tl" textColor="#000000" visible="true" width="162.34375" x="4.0" y="4.0">void shoot()
void loadAmmo(int count)
bool isAutomatic()</y:NodeLabel>
        </y:GenericNode>
      </data>
    </node>
    <node id="n33">
      <data key="d6">
        <y:GenericNode configuration="com.yworks.flowchart.process">
          <y:Geometry height="30.875589299891885" width="199.55285600864863" x="696.2351935414532" y="1244.5215719895386"/>
          <y:Fill color="#E8EEF7" color2="#B7C9E3" transparent="false"/>
          <y:BorderStyle color="#000000" type="line" width="1.0"/>
          <y:NodeLabel alignment="center" autoSizePolicy="content" fontFamily="Dialog" fontSize="12" fontStyle="plain" hasBackgroundColor="false" hasLineColor="false" height="18.701171875" modelName="custom" textColor="#000000" visible="true" width="84.712890625" x="57.419982691824316" y="6.0872087124459995">BulletsWeapon<y:LabelModel>
              <y:SmartNodeLabelModel distance="4.0"/>
            </y:LabelModel>
            <y:ModelParameter>
              <y:SmartNodeLabelModelParameter labelRatioX="0.0" labelRatioY="0.0" nodeRatioX="0.0" nodeRatioY="0.0" offsetX="0.0" offsetY="0.0" upX="0.0" upY="-1.0"/>
            </y:ModelParameter>
          </y:NodeLabel>
        </y:GenericNode>
      </data>
    </node>
    <node id="n34">
      <data key="d6">
        <y:GenericNode configuration="com.yworks.flowchart.process">
          <y:Geometry height="52.69417097319871" width="199.55285600864863" x="696.2351935414532" y="1274.5215719895386"/>
          <y:Fill color="#FFFFFF" color2="#FFFFFF" transparent="false"/>
          <y:BorderStyle color="#000000" type="line" width="1.0"/>
          <y:NodeLabel alignment="left" autoSizePolicy="content" fontFamily="Consolas" fontSize="12" fontStyle="plain" hasBackgroundColor="false" hasLineColor="false" height="40.0" modelName="internal" modelPosition="tl" textColor="#000000" visible="true" width="182.13671875" x="4.0" y="4.0">- float coolingTime
- IProjectile bulletControl
- GameObject bulletPrefab</y:NodeLabel>
        </y:GenericNode>
      </data>
    </node>
    <node id="n35">
      <data key="d6">
        <y:GenericNode configuration="com.yworks.flowchart.process">
          <y:Geometry height="52.69417097319871" width="199.55285600864863" x="696.2351935414532" y="1327.2157429627373"/>
          <y:Fill color="#FFFFFF" color2="#FFFFFF" transparent="false"/>
          <y:BorderStyle color="#000000" type="line" width="1.0"/>
          <y:NodeLabel alignment="left" autoSizePolicy="content" fontFamily="Consolas" fontSize="12" fontStyle="plain" hasBackgroundColor="false" hasLineColor="false" hasText="false" height="4.0" modelName="internal" modelPosition="tl" textColor="#000000" visible="true" width="4.0" x="4.0" y="4.0"/>
        </y:GenericNode>
      </data>
    </node>
    <node id="n36">
      <data key="d6">
        <y:GenericNode configuration="com.yworks.flowchart.process">
          <y:Geometry height="30.875589299891885" width="199.55285600864863" x="919.6447479179606" y="1245.3971612894306"/>
          <y:Fill color="#E8EEF7" color2="#B7C9E3" transparent="false"/>
          <y:BorderStyle color="#000000" type="line" width="1.0"/>
          <y:NodeLabel alignment="center" autoSizePolicy="content" fontFamily="Dialog" fontSize="12" fontStyle="plain" hasBackgroundColor="false" hasLineColor="false" height="18.701171875" modelName="custom" textColor="#000000" visible="true" width="48.70703125" x="75.42291237932432" y="6.0872087124459995">Shotgun<y:LabelModel>
              <y:SmartNodeLabelModel distance="4.0"/>
            </y:LabelModel>
            <y:ModelParameter>
              <y:SmartNodeLabelModelParameter labelRatioX="0.0" labelRatioY="0.0" nodeRatioX="0.0" nodeRatioY="0.0" offsetX="0.0" offsetY="0.0" upX="0.0" upY="-1.0"/>
            </y:ModelParameter>
          </y:NodeLabel>
        </y:GenericNode>
      </data>
    </node>
    <node id="n37">
      <data key="d6">
        <y:GenericNode configuration="com.yworks.flowchart.process">
          <y:Geometry height="52.69417097319871" width="199.55285600864863" x="919.6447479179606" y="1275.3971612894306"/>
          <y:Fill color="#FFFFFF" color2="#FFFFFF" transparent="false"/>
          <y:BorderStyle color="#000000" type="line" width="1.0"/>
          <y:NodeLabel alignment="left" autoSizePolicy="content" fontFamily="Consolas" fontSize="12" fontStyle="plain" hasBackgroundColor="false" hasLineColor="false" height="40.0" modelName="internal" modelPosition="tl" textColor="#000000" visible="true" width="175.5390625" x="4.0" y="4.0">- float coolingTime
- IProjectile shellControl
- GameObject shellPrefab</y:NodeLabel>
        </y:GenericNode>
      </data>
    </node>
    <node id="n38">
      <data key="d6">
        <y:GenericNode configuration="com.yworks.flowchart.process">
          <y:Geometry height="52.69417097319871" width="199.55285600864863" x="919.6447479179606" y="1328.0913322626293"/>
          <y:Fill color="#FFFFFF" color2="#FFFFFF" transparent="false"/>
          <y:BorderStyle color="#000000" type="line" width="1.0"/>
          <y:NodeLabel alignment="left" autoSizePolicy="content" fontFamily="Consolas" fontSize="12" fontStyle="plain" hasBackgroundColor="false" hasLineColor="false" hasText="false" height="4.0" modelName="internal" modelPosition="tl" textColor="#000000" visible="true" width="4.0" x="4.0" y="4.0"/>
        </y:GenericNode>
      </data>
    </node>
    <node id="n39">
      <data key="d6">
        <y:GenericNode configuration="com.yworks.flowchart.process">
          <y:Geometry height="30.875589299891885" width="199.55285600864863" x="1143.054302294468" y="1246.2727505893226"/>
          <y:Fill color="#E8EEF7" color2="#B7C9E3" transparent="false"/>
          <y:BorderStyle color="#000000" type="line" width="1.0"/>
          <y:NodeLabel alignment="center" autoSizePolicy="content" fontFamily="Dialog" fontSize="12" fontStyle="plain" hasBackgroundColor="false" hasLineColor="false" height="18.701171875" modelName="custom" textColor="#000000" visible="true" width="100.73828125" x="49.407287379324316" y="6.0872087124459995">GrenadeLauncher<y:LabelModel>
              <y:SmartNodeLabelModel distance="4.0"/>
            </y:LabelModel>
            <y:ModelParameter>
              <y:SmartNodeLabelModelParameter labelRatioX="0.0" labelRatioY="0.0" nodeRatioX="0.0" nodeRatioY="0.0" offsetX="0.0" offsetY="0.0" upX="0.0" upY="-1.0"/>
            </y:ModelParameter>
          </y:NodeLabel>
        </y:GenericNode>
      </data>
    </node>
    <node id="n40">
      <data key="d6">
        <y:GenericNode configuration="com.yworks.flowchart.process">
          <y:Geometry height="52.69417097319871" width="199.55285600864863" x="1143.054302294468" y="1276.2727505893226"/>
          <y:Fill color="#FFFFFF" color2="#FFFFFF" transparent="false"/>
          <y:BorderStyle color="#000000" type="line" width="1.0"/>
          <y:NodeLabel alignment="left" autoSizePolicy="content" fontFamily="Consolas" fontSize="12" fontStyle="plain" hasBackgroundColor="false" hasLineColor="false" height="40.0" modelName="internal" modelPosition="tl" textColor="#000000" visible="true" width="188.734375" x="4.0" y="4.0">- float coolingTime
- IProjectile grenadeControl
- GameObject grenadePrefab</y:NodeLabel>
        </y:GenericNode>
      </data>
    </node>
    <node id="n41">
      <data key="d6">
        <y:GenericNode configuration="com.yworks.flowchart.process">
          <y:Geometry height="52.69417097319871" width="199.55285600864863" x="1143.054302294468" y="1328.9669215625213"/>
          <y:Fill color="#FFFFFF" color2="#FFFFFF" transparent="false"/>
          <y:BorderStyle color="#000000" type="line" width="1.0"/>
          <y:NodeLabel alignment="left" autoSizePolicy="content" fontFamily="Consolas" fontSize="12" fontStyle="plain" hasBackgroundColor="false" hasLineColor="false" hasText="false" height="4.0" modelName="internal" modelPosition="tl" textColor="#000000" visible="true" width="4.0" x="4.0" y="4.0"/>
        </y:GenericNode>
      </data>
    </node>
    <node id="n42">
      <data key="d6">
        <y:GenericNode configuration="com.yworks.flowchart.process">
          <y:Geometry height="30.875589299891885" width="182.139815206178" x="895.2612661845219" y="1441.1372129014712"/>
          <y:Fill color="#E8EEF7" color2="#B7C9E3" transparent="false"/>
          <y:BorderStyle color="#000000" type="dashed" width="1.0"/>
          <y:NodeLabel alignment="center" autoSizePolicy="content" fontFamily="Dialog" fontSize="12" fontStyle="italic" hasBackgroundColor="false" hasLineColor="false" height="18.701171875" modelName="custom" textColor="#000000" visible="true" width="56.6875" x="62.726157603089064" y="6.0872087124459995">IProjectile<y:LabelModel>
              <y:SmartNodeLabelModel distance="4.0"/>
            </y:LabelModel>
            <y:ModelParameter>
              <y:SmartNodeLabelModelParameter labelRatioX="0.0" labelRatioY="0.0" nodeRatioX="0.0" nodeRatioY="0.0" offsetX="0.0" offsetY="0.0" upX="0.0" upY="-1.0"/>
            </y:ModelParameter>
          </y:NodeLabel>
        </y:GenericNode>
      </data>
    </node>
    <node id="n43">
      <data key="d6">
        <y:GenericNode configuration="com.yworks.flowchart.process">
          <y:Geometry height="24.694170973198766" width="182.139815206178" x="895.2612661845219" y="1471.1372129014712"/>
          <y:Fill color="#FFFFFF" color2="#FFFFFF" transparent="false"/>
          <y:BorderStyle color="#000000" type="dashed" width="1.0"/>
          <y:NodeLabel alignment="left" autoSizePolicy="content" fontFamily="Consolas" fontSize="12" fontStyle="plain" hasBackgroundColor="false" hasLineColor="false" height="16.0" modelName="internal" modelPosition="tl" textColor="#000000" visible="true" width="168.94140625" x="4.0" y="4.0">void release(Vector3 dir)</y:NodeLabel>
        </y:GenericNode>
      </data>
    </node>
    <node id="n44">
      <data key="d6">
        <y:GenericNode configuration="com.yworks.flowchart.process">
          <y:Geometry height="30.875589299891885" width="199.55285600864863" x="696.2351935414533" y="1547.5072336988014"/>
          <y:Fill color="#E8EEF7" color2="#B7C9E3" transparent="false"/>
          <y:BorderStyle color="#000000" type="line" width="1.0"/>
          <y:NodeLabel alignment="center" autoSizePolicy="content" fontFamily="Dialog" fontSize="12" fontStyle="plain" hasBackgroundColor="false" hasLineColor="false" height="18.701171875" modelName="custom" textColor="#000000" visible="true" width="72.701171875" x="63.425842066824316" y="6.0872087124459995">BulletControl<y:LabelModel>
              <y:SmartNodeLabelModel distance="4.0"/>
            </y:LabelModel>
            <y:ModelParameter>
              <y:SmartNodeLabelModelParameter labelRatioX="0.0" labelRatioY="0.0" nodeRatioX="0.0" nodeRatioY="0.0" offsetX="0.0" offsetY="0.0" upX="0.0" upY="-1.0"/>
            </y:ModelParameter>
          </y:NodeLabel>
        </y:GenericNode>
      </data>
    </node>
    <node id="n45">
      <data key="d6">
        <y:GenericNode configuration="com.yworks.flowchart.process">
          <y:Geometry height="52.69417097319871" width="199.55285600864863" x="696.2351935414533" y="1577.5072336988014"/>
          <y:Fill color="#FFFFFF" color2="#FFFFFF" transparent="false"/>
          <y:BorderStyle color="#000000" type="line" width="1.0"/>
          <y:NodeLabel alignment="left" autoSizePolicy="content" fontFamily="Consolas" fontSize="12" fontStyle="plain" hasBackgroundColor="false" hasLineColor="false" height="40.0" modelName="internal" modelPosition="tl" textColor="#000000" visible="true" width="182.13671875" x="4.0" y="4.0">- float coolingTime
- IProjectile bulletControl
- GameObject bulletPrefab</y:NodeLabel>
        </y:GenericNode>
      </data>
    </node>
    <node id="n46">
      <data key="d6">
        <y:GenericNode configuration="com.yworks.flowchart.process">
          <y:Geometry height="52.69417097319871" width="199.55285600864863" x="696.2351935414533" y="1630.201404672"/>
          <y:Fill color="#FFFFFF" color2="#FFFFFF" transparent="false"/>
          <y:BorderStyle color="#000000" type="line" width="1.0"/>
          <y:NodeLabel alignment="left" autoSizePolicy="content" fontFamily="Consolas" fontSize="12" fontStyle="plain" hasBackgroundColor="false" hasLineColor="false" hasText="false" height="4.0" modelName="internal" modelPosition="tl" textColor="#000000" visible="true" width="4.0" x="4.0" y="4.0"/>
        </y:GenericNode>
      </data>
    </node>
    <node id="n47">
      <data key="d6">
        <y:GenericNode configuration="com.yworks.flowchart.process">
          <y:Geometry height="30.875589299891885" width="199.55285600864863" x="919.6447479179607" y="1548.3828229986934"/>
          <y:Fill color="#E8EEF7" color2="#B7C9E3" transparent="false"/>
          <y:BorderStyle color="#000000" type="line" width="1.0"/>
          <y:NodeLabel alignment="center" autoSizePolicy="content" fontFamily="Dialog" fontSize="12" fontStyle="plain" hasBackgroundColor="false" hasLineColor="false" height="18.701171875" modelName="custom" textColor="#000000" visible="true" width="69.3671875" x="65.09283425432432" y="6.0872087124459995">ShellControl<y:LabelModel>
              <y:SmartNodeLabelModel distance="4.0"/>
            </y:LabelModel>
            <y:ModelParameter>
              <y:SmartNodeLabelModelParameter labelRatioX="0.0" labelRatioY="0.0" nodeRatioX="0.0" nodeRatioY="0.0" offsetX="0.0" offsetY="0.0" upX="0.0" upY="-1.0"/>
            </y:ModelParameter>
          </y:NodeLabel>
        </y:GenericNode>
      </data>
    </node>
    <node id="n48">
      <data key="d6">
        <y:GenericNode configuration="com.yworks.flowchart.process">
          <y:Geometry height="52.69417097319871" width="199.55285600864863" x="919.6447479179607" y="1578.3828229986934"/>
          <y:Fill color="#FFFFFF" color2="#FFFFFF" transparent="false"/>
          <y:BorderStyle color="#000000" type="line" width="1.0"/>
          <y:NodeLabel alignment="left" autoSizePolicy="content" fontFamily="Consolas" fontSize="12" fontStyle="plain" hasBackgroundColor="false" hasLineColor="false" height="40.0" modelName="internal" modelPosition="tl" textColor="#000000" visible="true" width="175.5390625" x="4.0" y="4.0">- float coolingTime
- IProjectile shellControl
- GameObject shellPrefab</y:NodeLabel>
        </y:GenericNode>
      </data>
    </node>
    <node id="n49">
      <data key="d6">
        <y:GenericNode configuration="com.yworks.flowchart.process">
          <y:Geometry height="52.69417097319871" width="199.55285600864863" x="919.6447479179607" y="1631.076993971892"/>
          <y:Fill color="#FFFFFF" color2="#FFFFFF" transparent="false"/>
          <y:BorderStyle color="#000000" type="line" width="1.0"/>
          <y:NodeLabel alignment="left" autoSizePolicy="content" fontFamily="Consolas" fontSize="12" fontStyle="plain" hasBackgroundColor="false" hasLineColor="false" hasText="false" height="4.0" modelName="internal" modelPosition="tl" textColor="#000000" visible="true" width="4.0" x="4.0" y="4.0"/>
        </y:GenericNode>
      </data>
    </node>
    <node id="n50">
      <data key="d6">
        <y:GenericNode configuration="com.yworks.flowchart.process">
          <y:Geometry height="30.875589299891885" width="199.55285600864863" x="1143.054302294468" y="1549.2584122985854"/>
          <y:Fill color="#E8EEF7" color2="#B7C9E3" transparent="false"/>
          <y:BorderStyle color="#000000" type="line" width="1.0"/>
          <y:NodeLabel alignment="center" autoSizePolicy="content" fontFamily="Dialog" fontSize="12" fontStyle="plain" hasBackgroundColor="false" hasLineColor="false" height="18.701171875" modelName="custom" textColor="#000000" visible="true" width="89.3828125" x="55.085021754324316" y="6.0872087124459995">GrenadeControl<y:LabelModel>
              <y:SmartNodeLabelModel distance="4.0"/>
            </y:LabelModel>
            <y:ModelParameter>
              <y:SmartNodeLabelModelParameter labelRatioX="0.0" labelRatioY="0.0" nodeRatioX="0.0" nodeRatioY="0.0" offsetX="0.0" offsetY="0.0" upX="0.0" upY="-1.0"/>
            </y:ModelParameter>
          </y:NodeLabel>
        </y:GenericNode>
      </data>
    </node>
    <node id="n51">
      <data key="d6">
        <y:GenericNode configuration="com.yworks.flowchart.process">
          <y:Geometry height="52.69417097319871" width="199.55285600864863" x="1143.054302294468" y="1579.2584122985854"/>
          <y:Fill color="#FFFFFF" color2="#FFFFFF" transparent="false"/>
          <y:BorderStyle color="#000000" type="line" width="1.0"/>
          <y:NodeLabel alignment="left" autoSizePolicy="content" fontFamily="Consolas" fontSize="12" fontStyle="plain" hasBackgroundColor="false" hasLineColor="false" height="40.0" modelName="internal" modelPosition="tl" textColor="#000000" visible="true" width="188.734375" x="4.0" y="4.0">- float coolingTime
- IProjectile grenadeControl
- GameObject grenadePrefab</y:NodeLabel>
        </y:GenericNode>
      </data>
    </node>
    <node id="n52">
      <data key="d6">
        <y:GenericNode configuration="com.yworks.flowchart.process">
          <y:Geometry height="52.69417097319871" width="199.55285600864863" x="1143.054302294468" y="1631.952583271784"/>
          <y:Fill color="#FFFFFF" color2="#FFFFFF" transparent="false"/>
          <y:BorderStyle color="#000000" type="line" width="1.0"/>
          <y:NodeLabel alignment="left" autoSizePolicy="content" fontFamily="Consolas" fontSize="12" fontStyle="plain" hasBackgroundColor="false" hasLineColor="false" hasText="false" height="4.0" modelName="internal" modelPosition="tl" textColor="#000000" visible="true" width="4.0" x="4.0" y="4.0"/>
        </y:GenericNode>
      </data>
    </node>
    <node id="n53">
      <data key="d6">
        <y:GenericNode configuration="BevelNode3">
          <y:Geometry height="30.0" width="165.6326606697055" x="1176.9744976334111" y="1151.5647998712366"/>
          <y:Fill color="#F2DB85" transparent="false"/>
          <y:BorderStyle hasColor="false" type="line" width="1.0"/>
          <y:NodeLabel alignment="center" autoSizePolicy="content" fontFamily="Dialog" fontSize="12" fontStyle="plain" hasBackgroundColor="false" hasLineColor="false" height="18.701171875" modelName="custom" textColor="#000000" visible="true" width="136.09375" x="14.769455334852864" y="5.6494140625">GrenadeLauncherPrefab<y:LabelModel>
              <y:SmartNodeLabelModel distance="4.0"/>
            </y:LabelModel>
            <y:ModelParameter>
              <y:SmartNodeLabelModelParameter labelRatioX="0.0" labelRatioY="0.0" nodeRatioX="0.0" nodeRatioY="0.0" offsetX="0.0" offsetY="0.0" upX="0.0" upY="-1.0"/>
            </y:ModelParameter>
          </y:NodeLabel>
        </y:GenericNode>
      </data>
    </node>
    <node id="n54">
      <data key="d6">
        <y:GenericNode configuration="BevelNode3">
          <y:Geometry height="30.0" width="132.03266066970548" x="638.7629567011485" y="1142.7546954151373"/>
          <y:Fill color="#F2DB85" transparent="false"/>
          <y:BorderStyle hasColor="false" type="line" width="1.0"/>
          <y:NodeLabel alignment="center" autoSizePolicy="content" fontFamily="Dialog" fontSize="12" fontStyle="plain" hasBackgroundColor="false" hasLineColor="false" height="18.701171875" modelName="custom" textColor="#000000" visible="true" width="62.037109375" x="34.997775647352796" y="5.6494140625">GunPrefab<y:LabelModel>
              <y:SmartNodeLabelModel distance="4.0"/>
            </y:LabelModel>
            <y:ModelParameter>
              <y:SmartNodeLabelModelParameter labelRatioX="0.0" labelRatioY="0.0" nodeRatioX="0.0" nodeRatioY="0.0" offsetX="0.0" offsetY="0.0" upX="0.0" upY="-1.0"/>
            </y:ModelParameter>
          </y:NodeLabel>
        </y:GenericNode>
      </data>
    </node>
    <node id="n55">
      <data key="d6">
        <y:GenericNode configuration="BevelNode3">
          <y:Geometry height="30.0" width="132.03266066970548" x="735.4029567011485" y="1105.4488663883362"/>
          <y:Fill color="#F2DB85" transparent="false"/>
          <y:BorderStyle hasColor="false" type="line" width="1.0"/>
          <y:NodeLabel alignment="center" autoSizePolicy="content" fontFamily="Dialog" fontSize="12" fontStyle="plain" hasBackgroundColor="false" hasLineColor="false" height="18.701171875" modelName="custom" textColor="#000000" visible="true" width="104.734375" x="13.649142834852796" y="5.6494140625">MachinegunPrefab<y:LabelModel>
              <y:SmartNodeLabelModel distance="4.0"/>
            </y:LabelModel>
            <y:ModelParameter>
              <y:SmartNodeLabelModelParameter labelRatioX="0.0" labelRatioY="0.0" nodeRatioX="0.0" nodeRatioY="0.0" offsetX="0.0" offsetY="0.0" upX="0.0" upY="-1.0"/>
            </y:ModelParameter>
          </y:NodeLabel>
        </y:GenericNode>
      </data>
    </node>
    <node id="n56">
      <data key="d6">
        <y:GenericNode configuration="BevelNode3">
          <y:Geometry height="30.0" width="127.5528560086484" x="1145.8482253820514" y="1113.1924900650833"/>
          <y:Fill color="#F2DB85" transparent="false"/>
          <y:BorderStyle hasColor="false" type="line" width="1.0"/>
          <y:NodeLabel alignment="center" autoSizePolicy="content" fontFamily="Dialog" fontSize="12" fontStyle="plain" hasBackgroundColor="false" hasLineColor="false" height="18.701171875" modelName="custom" textColor="#000000" visible="true" width="84.0625" x="21.745178004324316" y="5.6494140625">ShotgunPrefab<y:LabelModel>
              <y:SmartNodeLabelModel distance="4.0"/>
            </y:LabelModel>
            <y:ModelParameter>
              <y:SmartNodeLabelModelParameter labelRatioX="0.0" labelRatioY="0.0" nodeRatioX="0.0" nodeRatioY="0.0" offsetX="0.0" offsetY="0.0" upX="0.0" upY="-1.0"/>
            </y:ModelParameter>
          </y:NodeLabel>
        </y:GenericNode>
      </data>
    </node>
    <node id="n57">
      <data key="d6">
        <y:GenericNode configuration="BevelNode3">
          <y:Geometry height="30.0" width="98.03266066970548" x="702.3629567011485" y="1441.5750075514172"/>
          <y:Fill color="#F2DB85" transparent="false"/>
          <y:BorderStyle hasColor="false" type="line" width="1.0"/>
          <y:NodeLabel alignment="center" autoSizePolicy="content" fontFamily="Dialog" fontSize="12" fontStyle="plain" hasBackgroundColor="false" hasLineColor="false" height="18.701171875" modelName="custom" textColor="#000000" visible="true" width="69.373046875" x="14.329806897352682" y="5.6494140625">BulletPrefab<y:LabelModel>
              <y:SmartNodeLabelModel distance="4.0"/>
            </y:LabelModel>
            <y:ModelParameter>
              <y:SmartNodeLabelModelParameter labelRatioX="0.0" labelRatioY="0.0" nodeRatioX="0.0" nodeRatioY="0.0" offsetX="0.0" offsetY="0.0" upX="0.0" upY="-1.0"/>
            </y:ModelParameter>
          </y:NodeLabel>
        </y:GenericNode>
      </data>
    </node>
    <node id="n58">
      <data key="d6">
        <y:GenericNode configuration="BevelNode3">
          <y:Geometry height="30.0" width="98.03266066970548" x="1117.4010813906998" y="1471.1372129014712"/>
          <y:Fill color="#F2DB85" transparent="false"/>
          <y:BorderStyle hasColor="false" type="line" width="1.0"/>
          <y:NodeLabel alignment="center" autoSizePolicy="content" fontFamily="Dialog" fontSize="12" fontStyle="plain" hasBackgroundColor="false" hasLineColor="false" height="18.701171875" modelName="custom" textColor="#000000" visible="true" width="66.0390625" x="15.996799084852682" y="5.6494140625">ShellPrefab<y:LabelModel>
              <y:SmartNodeLabelModel distance="4.0"/>
            </y:LabelModel>
            <y:ModelParameter>
              <y:SmartNodeLabelModelParameter labelRatioX="0.0" labelRatioY="0.0" nodeRatioX="0.0" nodeRatioY="0.0" offsetX="0.0" offsetY="0.0" upX="0.0" upY="-1.0"/>
            </y:ModelParameter>
          </y:NodeLabel>
        </y:GenericNode>
      </data>
    </node>
    <node id="n59">
      <data key="d6">
        <y:GenericNode configuration="BevelNode3">
          <y:Geometry height="30.0" width="110.03266066970548" x="1225.0888701034455" y="1432.3704967789095"/>
          <y:Fill color="#F2DB85" transparent="false"/>
          <y:BorderStyle hasColor="false" type="line" width="1.0"/>
          <y:NodeLabel alignment="center" autoSizePolicy="content" fontFamily="Dialog" fontSize="12" fontStyle="plain" hasBackgroundColor="false" hasLineColor="false" height="18.701171875" modelName="custom" textColor="#000000" visible="true" width="86.0546875" x="11.988986584852682" y="5.6494140625">GrenadePrefab<y:LabelModel>
              <y:SmartNodeLabelModel distance="4.0"/>
            </y:LabelModel>
            <y:ModelParameter>
              <y:SmartNodeLabelModelParameter labelRatioX="0.0" labelRatioY="0.0" nodeRatioX="0.0" nodeRatioY="0.0" offsetX="0.0" offsetY="0.0" upX="0.0" upY="-1.0"/>
            </y:ModelParameter>
          </y:NodeLabel>
        </y:GenericNode>
      </data>
    </node>
    <edge id="e0" source="n1" target="n2">
      <data key="d8"/>
      <data key="d9"/>
      <data key="d10">
        <y:PolyLineEdge>
          <y:Path sx="0.0" sy="0.0" tx="0.0" ty="-15.437794649946">
            <y:Point x="892.4765151286744" y="631.1709965635985"/>
            <y:Point x="789.3558543350639" y="631.1709965635985"/>
          </y:Path>
          <y:LineStyle color="#000000" type="line" width="1.0"/>
          <y:Arrows source="diamond" target="none"/>
          <y:BendStyle smoothed="false"/>
        </y:PolyLineEdge>
      </data>
    </edge>
    <edge id="e1" source="n22" target="n13">
      <data key="d8"/>
      <data key="d9"/>
      <data key="d10">
        <y:PolyLineEdge>
          <y:Path sx="0.0" sy="0.0" tx="0.0" ty="0.0"/>
          <y:LineStyle color="#000000" type="line" width="1.0"/>
          <y:Arrows source="none" target="plain"/>
          <y:BendStyle smoothed="false"/>
        </y:PolyLineEdge>
      </data>
    </edge>
    <edge id="e2" source="n1" target="n7">
      <data key="d8"/>
      <data key="d9"/>
      <data key="d10">
        <y:PolyLineEdge>
          <y:Path sx="0.0" sy="0.0" tx="0.0" ty="0.0">
            <y:Point x="892.4765151286744" y="631.1709965635985"/>
            <y:Point x="646.5253333333332" y="631.1709965635985"/>
            <y:Point x="646.5253333333332" y="1031.205171998949"/>
            <y:Point x="1019.4211759222851" y="1031.205171998949"/>
          </y:Path>
          <y:LineStyle color="#000000" type="line" width="1.0"/>
          <y:Arrows source="diamond" target="none"/>
          <y:BendStyle smoothed="false"/>
        </y:PolyLineEdge>
      </data>
    </edge>
    <edge id="e3" source="n1" target="n10">
      <data key="d8"/>
      <data key="d9"/>
      <data key="d10">
        <y:PolyLineEdge>
          <y:Path sx="0.0" sy="0.0" tx="0.0" ty="0.0">
            <y:Point x="892.4765151286744" y="631.1709965635985"/>
            <y:Point x="658.2053333333331" y="631.1709965635985"/>
            <y:Point x="658.2053333333331" y="1018.8332254764034"/>
            <y:Point x="789.3558543350639" y="1018.8332254764034"/>
          </y:Path>
          <y:LineStyle color="#000000" type="line" width="1.0"/>
          <y:Arrows source="diamond" target="none"/>
          <y:BendStyle smoothed="false"/>
        </y:PolyLineEdge>
      </data>
    </edge>
    <edge id="e4" source="n8" target="n12">
      <data key="d9"/>
      <data key="d10">
        <y:PolyLineEdge>
          <y:Path sx="0.0" sy="0.0" tx="0.0" ty="0.0"/>
          <y:LineStyle color="#000000" type="dashed" width="1.0"/>
          <y:Arrows source="none" target="white_delta"/>
          <y:BendStyle smoothed="false"/>
        </y:PolyLineEdge>
      </data>
    </edge>
    <edge id="e5" source="n5" target="n14">
      <data key="d9"/>
      <data key="d10">
        <y:PolyLineEdge>
          <y:Path sx="0.0" sy="0.0" tx="0.0" ty="0.0"/>
          <y:LineStyle color="#000000" type="dashed" width="1.0"/>
          <y:Arrows source="none" target="white_delta"/>
          <y:BendStyle smoothed="false"/>
        </y:PolyLineEdge>
      </data>
    </edge>
    <edge id="e6" source="n17" target="n16">
      <data key="d9"/>
      <data key="d10">
        <y:PolyLineEdge>
          <y:Path sx="0.0" sy="0.0" tx="0.0" ty="0.0">
            <y:Point x="1276.5861159378521" y="928.5583058406734"/>
            <y:Point x="1276.5861159378524" y="928.5583058406734"/>
          </y:Path>
          <y:LineStyle color="#000000" type="dashed" width="1.0"/>
          <y:Arrows source="none" target="white_delta"/>
          <y:BendStyle smoothed="false"/>
        </y:PolyLineEdge>
      </data>
    </edge>
    <edge id="e7" source="n1" target="n20">
      <data key="d9"/>
      <data key="d10">
        <y:PolyLineEdge>
          <y:Path sx="0.0" sy="0.0" tx="0.0" ty="0.0">
            <y:Point x="892.4765151286744" y="631.1709965635985"/>
            <y:Point x="1019.4211759222851" y="631.1709965635985"/>
          </y:Path>
          <y:LineStyle color="#000000" type="line" width="1.0"/>
          <y:Arrows source="diamond" target="none"/>
          <y:BendStyle smoothed="false"/>
        </y:PolyLineEdge>
      </data>
    </edge>
    <edge id="e8" source="n1" target="n23">
      <data key="d9"/>
      <data key="d10">
        <y:PolyLineEdge>
          <y:Path sx="0.0" sy="0.0" tx="0.0" ty="0.0">
            <y:Point x="892.4765151286744" y="631.1709965635985"/>
            <y:Point x="1276.5861159378524" y="631.1709965635985"/>
          </y:Path>
          <y:LineStyle color="#000000" type="line" width="1.0"/>
          <y:Arrows source="diamond" target="none"/>
          <y:BendStyle smoothed="false"/>
        </y:PolyLineEdge>
      </data>
    </edge>
    <edge id="e9" source="n25" target="n15">
      <data key="d8"/>
      <data key="d9"/>
      <data key="d10">
        <y:PolyLineEdge>
          <y:Path sx="0.0" sy="0.0" tx="0.0" ty="0.0"/>
          <y:LineStyle color="#000000" type="line" width="1.0"/>
          <y:Arrows source="none" target="plain"/>
          <y:BendStyle smoothed="false"/>
        </y:PolyLineEdge>
      </data>
    </edge>
    <edge id="e10" source="n4" target="n11">
      <data key="d8"/>
      <data key="d9"/>
      <data key="d10">
        <y:PolyLineEdge>
          <y:Path sx="0.0" sy="0.0" tx="0.0" ty="0.0"/>
          <y:LineStyle color="#000000" type="line" width="1.0"/>
          <y:Arrows source="none" target="plain"/>
          <y:BendStyle smoothed="false"/>
        </y:PolyLineEdge>
      </data>
    </edge>
    <edge id="e11" source="n16" target="n26">
      <data key="d9"/>
      <data key="d10">
        <y:PolyLineEdge>
          <y:Path sx="0.0" sy="-19.199999999999932" tx="0.0" ty="0.0">
            <y:Point x="1420.170776731463" y="867.2380557325602"/>
            <y:Point x="1420.170776731463" y="805.1091690962418"/>
          </y:Path>
          <y:LineStyle color="#000000" type="dashed" width="1.0"/>
          <y:Arrows source="none" target="plain"/>
          <y:BendStyle smoothed="false"/>
        </y:PolyLineEdge>
      </data>
    </edge>
    <edge id="e12" source="n16" target="n28">
      <data key="d9"/>
      <data key="d10">
        <y:PolyLineEdge>
          <y:Path sx="0.0" sy="4.783069436526716" tx="0.0" ty="0.0">
            <y:Point x="1424.010776731463" y="891.2211251690868"/>
            <y:Point x="1424.010776731463" y="917.1944995686251"/>
          </y:Path>
          <y:LineStyle color="#000000" type="dashed" width="1.0"/>
          <y:Arrows source="none" target="plain"/>
          <y:BendStyle smoothed="false"/>
        </y:PolyLineEdge>
      </data>
    </edge>
    <edge id="e13" source="n1" target="n30">
      <data key="d9"/>
      <data key="d10">
        <y:PolyLineEdge>
          <y:Path sx="0.0" sy="5.344116419767261" tx="0.0" ty="0.0"/>
          <y:LineStyle color="#000000" type="line" width="1.0"/>
          <y:Arrows source="diamond" target="none"/>
          <y:BendStyle smoothed="false"/>
        </y:PolyLineEdge>
      </data>
    </edge>
    <edge id="e14" source="n39" target="n32">
      <data key="d9"/>
      <data key="d10">
        <y:PolyLineEdge>
          <y:Path sx="0.0" sy="0.0" tx="0.0" ty="0.0">
            <y:Point x="1242.8307302987923" y="1221.0183363270703"/>
            <y:Point x="986.6211759222851" y="1221.0183363270703"/>
          </y:Path>
          <y:LineStyle color="#000000" type="dashed" width="1.0"/>
          <y:Arrows source="none" target="white_delta"/>
          <y:BendStyle smoothed="false"/>
        </y:PolyLineEdge>
      </data>
    </edge>
    <edge id="e15" source="n36" target="n32">
      <data key="d9"/>
      <data key="d10">
        <y:PolyLineEdge>
          <y:Path sx="-3.839999999999918" sy="0.0" tx="0.0" ty="0.0">
            <y:Point x="1015.581175922285" y="1221.0183363270703"/>
            <y:Point x="986.6211759222851" y="1221.0183363270703"/>
          </y:Path>
          <y:LineStyle color="#000000" type="dashed" width="1.0"/>
          <y:Arrows source="none" target="white_delta"/>
          <y:BendStyle smoothed="false"/>
        </y:PolyLineEdge>
      </data>
    </edge>
    <edge id="e16" source="n33" target="n32">
      <data key="d9"/>
      <data key="d10">
        <y:PolyLineEdge>
          <y:Path sx="0.0" sy="0.0" tx="0.0" ty="-8.646905901743139">
            <y:Point x="796.0116215457775" y="1221.0183363270703"/>
            <y:Point x="986.6211759222851" y="1221.0183363270703"/>
          </y:Path>
          <y:LineStyle color="#000000" type="dashed" width="1.0"/>
          <y:Arrows source="none" target="white_delta"/>
          <y:BendStyle smoothed="false"/>
        </y:PolyLineEdge>
      </data>
    </edge>
    <edge id="e17" source="n19" target="n31">
      <data key="d8"/>
      <data key="d9"/>
      <data key="d10">
        <y:PolyLineEdge>
          <y:Path sx="0.0" sy="0.0" tx="0.0" ty="0.0">
            <y:Point x="1276.5861159378521" y="1087.2712825166568"/>
            <y:Point x="986.6211759222851" y="1087.2712825166568"/>
          </y:Path>
          <y:LineStyle color="#000000" type="line" width="1.0"/>
          <y:Arrows source="none" target="plain"/>
          <y:BendStyle smoothed="false"/>
        </y:PolyLineEdge>
      </data>
    </edge>
    <edge id="e18" source="n50" target="n43">
      <data key="d9"/>
      <data key="d10">
        <y:PolyLineEdge>
          <y:Path sx="0.0" sy="0.0" tx="0.0" ty="0.0">
            <y:Point x="1242.8307302987923" y="1523.128408736441"/>
            <y:Point x="986.3311737876109" y="1523.128408736441"/>
          </y:Path>
          <y:LineStyle color="#000000" type="dashed" width="1.0"/>
          <y:Arrows source="none" target="white_delta"/>
          <y:BendStyle smoothed="false"/>
        </y:PolyLineEdge>
      </data>
    </edge>
    <edge id="e19" source="n47" target="n43">
      <data key="d9"/>
      <data key="d10">
        <y:PolyLineEdge>
          <y:Path sx="-3.2000000000000455" sy="0.0" tx="0.0" ty="0.0">
            <y:Point x="1016.2211759222849" y="1523.128408736441"/>
            <y:Point x="986.3311737876109" y="1523.128408736441"/>
          </y:Path>
          <y:LineStyle color="#000000" type="dashed" width="1.0"/>
          <y:Arrows source="none" target="white_delta"/>
          <y:BendStyle smoothed="false"/>
        </y:PolyLineEdge>
      </data>
    </edge>
    <edge id="e20" source="n44" target="n43">
      <data key="d9"/>
      <data key="d10">
        <y:PolyLineEdge>
          <y:Path sx="0.0" sy="0.0" tx="0.0" ty="-4.052216189821279">
            <y:Point x="796.0116215457776" y="1523.128408736441"/>
            <y:Point x="986.3311737876109" y="1523.128408736441"/>
          </y:Path>
          <y:LineStyle color="#000000" type="dashed" width="1.0"/>
          <y:Arrows source="none" target="white_delta"/>
          <y:BendStyle smoothed="false"/>
        </y:PolyLineEdge>
      </data>
    </edge>
    <edge id="e21" source="n35" target="n42">
      <data key="d8"/>
      <data key="d9"/>
      <data key="d10">
        <y:PolyLineEdge>
          <y:Path sx="0.0" sy="0.0" tx="0.0" ty="0.0">
            <y:Point x="796.0116215457775" y="1412.3704967789095"/>
            <y:Point x="986.3311737876109" y="1412.3704967789095"/>
          </y:Path>
          <y:LineStyle color="#000000" type="line" width="1.0"/>
          <y:Arrows source="none" target="plain"/>
          <y:BendStyle smoothed="false"/>
        </y:PolyLineEdge>
      </data>
    </edge>
    <edge id="e22" source="n38" target="n42">
      <data key="d8"/>
      <data key="d9"/>
      <data key="d10">
        <y:PolyLineEdge>
          <y:Path sx="0.0" sy="0.0" tx="0.0" ty="3.4114892274922113">
            <y:Point x="1019.4211759222849" y="1412.3704967789095"/>
            <y:Point x="986.3311737876109" y="1412.3704967789095"/>
          </y:Path>
          <y:LineStyle color="#000000" type="line" width="1.0"/>
          <y:Arrows source="none" target="plain"/>
          <y:BendStyle smoothed="false"/>
        </y:PolyLineEdge>
      </data>
    </edge>
    <edge id="e23" source="n41" target="n42">
      <data key="d8"/>
      <data key="d9"/>
      <data key="d10">
        <y:PolyLineEdge>
          <y:Path sx="0.0" sy="0.0" tx="0.0" ty="0.0">
            <y:Point x="1242.8307302987923" y="1412.3704967789095"/>
            <y:Point x="986.3311737876109" y="1412.3704967789095"/>
          </y:Path>
          <y:LineStyle color="#000000" type="line" width="1.0"/>
          <y:Arrows source="none" target="plain"/>
          <y:BendStyle smoothed="false"/>
        </y:PolyLineEdge>
      </data>
    </edge>
    <edge id="e24" source="n54" target="n33">
      <data key="d9"/>
      <data key="d10">
        <y:PolyLineEdge>
          <y:Path sx="35.45633033485262" sy="0.0" tx="-55.77600417492363" ty="0.0"/>
          <y:LineStyle color="#000000" type="line" width="1.0"/>
          <y:Arrows source="diamond" target="none"/>
          <y:BendStyle smoothed="false"/>
        </y:PolyLineEdge>
      </data>
    </edge>
    <edge id="e25" source="n55" target="n33">
      <data key="d9"/>
      <data key="d10">
        <y:PolyLineEdge>
          <y:Path sx="-25.40766549022362" sy="0.0" tx="-20.0" ty="-2.399934164172464"/>
          <y:LineStyle color="#000000" type="line" width="1.0"/>
          <y:Arrows source="diamond" target="none"/>
          <y:BendStyle smoothed="false"/>
        </y:PolyLineEdge>
      </data>
    </edge>
    <edge id="e26" source="n56" target="n36">
      <data key="d9"/>
      <data key="d10">
        <y:PolyLineEdge>
          <y:Path sx="0.0" sy="0.0" tx="67.70743640760293" ty="-3.275523464064463">
            <y:Point x="1087.1286123298878" y="1128.1924900650833"/>
          </y:Path>
          <y:LineStyle color="#000000" type="line" width="1.0"/>
          <y:Arrows source="diamond" target="none"/>
          <y:BendStyle smoothed="false"/>
        </y:PolyLineEdge>
      </data>
    </edge>
    <edge id="e27" source="n53" target="n39">
      <data key="d9"/>
      <data key="d10">
        <y:PolyLineEdge>
          <y:Path sx="33.61025342243602" sy="0.0" tx="50.57035109190747" ty="-0.9575973255480221"/>
          <y:LineStyle color="#000000" type="line" width="1.0"/>
          <y:Arrows source="diamond" target="none"/>
          <y:BendStyle smoothed="false"/>
        </y:PolyLineEdge>
      </data>
    </edge>
    <edge id="e28" source="n35" target="n57">
      <data key="d9"/>
      <data key="d10">
        <y:PolyLineEdge>
          <y:Path sx="-14.656608405078146" sy="8.359359050664352" tx="0.0" ty="0.0">
            <y:Point x="751.3792870360012" y="1361.922187500001"/>
            <y:Point x="751.3792870360012" y="1378.748597525709"/>
          </y:Path>
          <y:LineStyle color="#000000" type="line" width="1.0"/>
          <y:Arrows source="none" target="plain"/>
          <y:BendStyle smoothed="false"/>
        </y:PolyLineEdge>
      </data>
    </edge>
    <edge id="e29" source="n57" target="n44">
      <data key="d9"/>
      <data key="d10">
        <y:PolyLineEdge>
          <y:Path sx="29.021794354698613" sy="0.0" tx="-15.610540155077842" ty="-8.19208043502681"/>
          <y:LineStyle color="#000000" type="line" width="1.0"/>
          <y:Arrows source="diamond" target="none"/>
          <y:BendStyle smoothed="false"/>
        </y:PolyLineEdge>
      </data>
    </edge>
    <edge id="e30" source="n58" target="n47">
      <data key="d9"/>
      <data key="d10">
        <y:PolyLineEdge>
          <y:Path sx="0.0" sy="0.0" tx="77.97990546841481" ty="-2.067669734918809">
            <y:Point x="1097.4010813906998" y="1486.1372129014712"/>
          </y:Path>
          <y:LineStyle color="#000000" type="line" width="1.0"/>
          <y:Arrows source="diamond" target="none"/>
          <y:BendStyle smoothed="false"/>
        </y:PolyLineEdge>
      </data>
    </edge>
    <edge id="e31" source="n59" target="n50">
      <data key="d9"/>
      <data key="d10">
        <y:PolyLineEdge>
          <y:Path sx="14.034968952401186" sy="0.0" tx="51.30943909190705" ty="-8.986379034810625"/>
          <y:LineStyle color="#000000" type="line" width="1.0"/>
          <y:Arrows source="diamond" target="none"/>
          <y:BendStyle smoothed="false"/>
        </y:PolyLineEdge>
      </data>
    </edge>
    <edge id="e32" source="n41" target="n59">
      <data key="d9"/>
      <data key="d10">
        <y:PolyLineEdge>
          <y:Path sx="37.274470139505866" sy="0.0" tx="0.0" ty="0.0"/>
          <y:LineStyle color="#000000" type="line" width="1.0"/>
          <y:Arrows source="none" target="plain"/>
          <y:BendStyle smoothed="false"/>
        </y:PolyLineEdge>
      </data>
    </edge>
    <edge id="e33" source="n38" target="n58">
      <data key="d9"/>
      <data key="d10">
        <y:PolyLineEdge>
          <y:Path sx="77.97990546841493" sy="0.0" tx="0.0" ty="0.0">
            <y:Point x="1097.4010813906998" y="1447.3704967789095"/>
            <y:Point x="1166.4174117255525" y="1447.3704967789095"/>
          </y:Path>
          <y:LineStyle color="#000000" type="line" width="1.0"/>
          <y:Arrows source="none" target="plain"/>
          <y:BendStyle smoothed="false"/>
        </y:PolyLineEdge>
      </data>
    </edge>
  </graph>
  <data key="d7">
    <y:Resources/>
  </data>
</graphml>
